﻿2000.1.1 = {
	capital = 762
	oob = "CAN_2000"
	
	add_ideas = {
		gdp_8
		pop_050
		negligible_corruption
		christian
		defence_02
		edu_05
		health_05
		social_05
		bureau_04
		police_02
		volunteer_army
		volunteer_women
		western_country
		common_law
		tax_cost_15
	}
	
	set_politics = {

		parties = {
			democratic = { 
				popularity = 30
			}

			fascism = {
				popularity = 0
			}
			
			communism = {
				popularity = 0
			}
			
			neutrality = {
				popularity = 55
			}
			
			nationalist = {
				popularity = 15
			}
		}
		
		ruling_party = neutrality
		last_election = "2014.4.7"
		election_frequency = 48
		elections_allowed = yes
	}
	
	recalculate_party = yes
	
	create_country_leader = {
		name = "Louise Harel"
		desc = "POLITICS_MACKENZIE_KING_DESC"
		expire = "2020.1.1"
		picture = "QUE_Louise_Harel.png"
		ideology = neutral_Social
		traits = {
			#
		}
	}
	
	create_country_leader = {
		name = "Jean-Pierre Charbonneau"
		desc = "POLITICS_MACKENZIE_KING_DESC"
		expire = "2020.1.1"
		picture = "QUE_Jean_Pierre_Charbonneau.png"
		ideology = neutral_Social
		traits = {
			#
		}
	}
	
	# Starting tech
	set_technology = { 
		legacy_doctrines = 1 
		modern_blitzkrieg = 1 
		forward_defense = 1 
		encourage_nco_iniative = 1 
		air_land_battle = 1

		#Colt C7
		infantry_weapons = 1
		infantry_weapons1 = 1
		infantry_weapons2 = 1
		infantry_weapons3 = 1
		
		combat_eng_equipment = 1
		
		night_vision_1 = 1
		night_vision_2 = 1
		night_vision_3 = 1
		
		command_control_equipment = 1
		command_control_equipment1 = 1
		command_control_equipment2 = 1
		
		land_Drone_equipment = 1
		land_Drone_equipment1 = 1
		
		Early_APC = 1
		
		APC_1 = 1
		APC_2 = 1
		APC_3 = 1
		APC_4 = 1
		
		IFV_1 = 1
		IFV_2 = 1
		IFV_3 = 1
		IFV_4 = 1
		
		Rec_tank_0 = 1
		Rec_tank_1 = 1
		
		util_vehicle_0 = 1
		util_vehicle_1 = 1
		util_vehicle_2 = 1
		util_vehicle_3 = 1
		
		MBT_1 = 1
		ENGI_MBT_1 = 1
		
		artillery_0 = 1
		Arty_upgrade_1 = 1
		
		Anti_tank_0 = 1
		AT_upgrade_1 = 1
		Anti_tank_1 = 1
		Heavy_Anti_tank_0 = 1
		
		Anti_Air_0 = 1
		
		early_bomber = 1
		naval_plane1 = 1
		naval_plane2 = 1
		
		#Halifax Class
		frigate_1 = 1
		frigate_2 = 1
		missile_frigate_1 = 1
		
		#Iroquois Class
		destroyer_1 = 1
		destroyer_2 = 1
		
		#Victoria Class
		diesel_attack_submarine_1 = 1
		diesel_attack_submarine_2 = 1
		diesel_attack_submarine_3 = 1
		
		landing_craft = 1

	}
}

2017.1.1 = {
	capital = 763
	oob = "CAN_2017"
	set_convoys = 150
	
	add_ideas = {
		gdp_8
		pop_050
		negligible_corruption
		christian
		defence_02
		edu_05
		health_05
		social_05
		bureau_04
		police_02
		volunteer_army
		volunteer_women
		western_country
		common_law
		tax_cost_15
	}
	
	#Nat focus
	complete_national_focus = bonus_tech_slots
	complete_national_focus = Generic_4K_GDPC_slot
	complete_national_focus = Generic_15K_GDPC_slot
	complete_national_focus = Generic_30K_GDPC_slot
	complete_national_focus = Generic_4_IC_slot
	complete_national_focus = Generic_8_IC_slot
	complete_national_focus = Generic_16_IC_slot
	complete_national_focus = Generic_30_IC_slot
	
	set_politics = {

		parties = {
			democratic = { 
				popularity = 70
			}

			fascism = {
				popularity = 0
			}
			
			communism = {
				popularity = 0
			}
			
			neutrality = {
				popularity = 20
			}
			
			nationalist = {
				popularity = 10
			}
		}
		
		ruling_party = democratic
		last_election = "2014.4.7"
		election_frequency = 48
		elections_allowed = yes
	}
	
	create_country_leader = {
		name = "François Paradis"
		desc = "POLITICS_MACKENZIE_KING_DESC"
		expire = "2020.1.1"
		picture = "QUE_Francois_Paradis.png"
		ideology = Nat_Populism
		traits = {
			#
		}
	}
	
	create_country_leader = {
		name = "Jacques Chagnon"
		desc = "POLITICS_MACKENZIE_KING_DESC"
		expire = "2020.1.1"
		ideology = liberalism
		picture = "QUE_Jacques_Chagnon.png"
		traits = {
			#
		}
	}

	# Starting tech
	set_technology = { 
		legacy_doctrines = 1 
		modern_blitzkrieg = 1 
		forward_defense = 1 
		encourage_nco_iniative = 1 
		air_land_battle = 1

		#Colt C8
		infantry_weapons = 1
		infantry_weapons1 = 1
		infantry_weapons2 = 1
		infantry_weapons3 = 1
		
		combat_eng_equipment = 1
		
		night_vision_1 = 1
		night_vision_2 = 1
		night_vision_3 = 1
		
		command_control_equipment = 1
		command_control_equipment1 = 1
		command_control_equipment2 = 1
		command_control_equipment3 = 1
		command_control_equipment4 = 1
		
		land_Drone_equipment = 1
		land_Drone_equipment1 = 1
		land_Drone_equipment2 = 1
		land_Drone_equipment3 = 1
		
		Early_APC = 1
		
		APC_1 = 1
		APC_2 = 1
		APC_3 = 1
		APC_4 = 1
		APC_5 = 1
		
		IFV_1 = 1
		IFV_2 = 1
		IFV_3 = 1
		IFV_4 = 1
		
		Rec_tank_0 = 1
		Rec_tank_1 = 1
		Rec_tank_2 = 1
		
		util_vehicle_0 = 1
		util_vehicle_1 = 1
		util_vehicle_2 = 1
		util_vehicle_3 = 1
		util_vehicle_4 = 1
		util_vehicle_5 = 1
		
		MBT_1 = 1
		ENGI_MBT_1 = 1
		
		artillery_0 = 1
		Arty_upgrade_1 = 1
		
		Anti_tank_0 = 1
		AT_upgrade_1 = 1
		Anti_tank_1 = 1
		Heavy_Anti_tank_0 = 1
		
		Anti_Air_0 = 1
		
		early_bomber = 1
		naval_plane1 = 1
		naval_plane2 = 1
		
		#Halifax Class
		frigate_1 = 1
		frigate_2 = 1
		missile_frigate_1 = 1
		
		#Iroquois Class
		destroyer_1 = 1
		destroyer_2 = 1
		
		#Victoria Class
		diesel_attack_submarine_1 = 1
		diesel_attack_submarine_2 = 1
		diesel_attack_submarine_3 = 1
		
		landing_craft = 1

	}
}