﻿capital = 586

oob = "KYR_2000"

set_convoys = 20
set_stability = 0.5

set_country_flag = country_language_kirghiz
set_country_flag = country_language_russian

set_technology = {
	infantry_weapons = 1
	infantry_weapons1 = 1
	infantry_weapons2 = 1
	infantry_weapons3 = 1
	infantry_weapons4 = 1
	night_vision_1 = 1
	command_control_equipment = 1
	command_control_equipment1 = 1
	command_control_equipment2 = 1
	command_control_equipment3 = 1
	land_Drone_equipment = 1
	land_Drone_equipment1 = 1
	combat_eng_equipment = 1
	body_armor = 1
	body_armor2 = 1
	camouflage = 1
	
	Early_APC = 1
	MBT_1 = 1
	ENG_MBT_1
	MBT_2 = 1
	ENG_MBT_2 = 1
	MBT_3 = 1
	ENG_MBT_3 = 1
	Rec_tank_0 = 1
	APC_1 = 1
	Air_APC_1 = 1
	APC_2 = 1
	Air_APC_2 = 1
	IFV_1 = 1
	Air_IFV_1 = 1
	IFV_2 = 1
	Air_IFV_2 = 1
	util_vehicle_equipment_0 = 1
	util_vehicle_equipment_1 = 1
	
	gw_artillery = 1
	artillery_1 = 1
	Anti_tank_2 = 1
	Heavy_Anti_tank_2 = 1
	AT_upgrade_2 = 1
	Anti_Air_0 = 1
	SP_Anti_Air_0 = 1
	AA_upgrade_1 = 1

	
	early_bomber = 1
	cas1 = 1
	cas2 = 1
	early_fighter = 1
	MR_Fighter1 = 1
	MR_Fighter2 = 1
	MR_upgrade_1 = 1
	MR_Fighter3 = 1
	naval_plane1 = 1
	naval_plane2 = 1
	naval_plane3 = 1
	strategic_bomber1 = 1
	strategic_bomber2 = 1
	strategic_bomber3 = 1
	Air_UAV1 = 1
	
	
}
set_country_flag = dominant_religion_islam
set_country_flag = sunni_islam

add_ideas = {
	population_growth_steady
	limited_conscription
}

set_politics = {
	parties = {
		reactionary = {
			popularity = 50
		}
		democratic_socialist = {
			popularity = 25
		}
		social_democrat = {
			popularity = 20
		}
		market_liberal = {
			popularity = 5
		}
	}
		
		ruling_party = reactionary
		last_election = "1997.6.1"
		election_frequency = 48
		elections_allowed = yes
}

create_country_leader = {
	name = "Askar Akayev"
	picture = "Askar_Akayev.dds"
	ideology = oligarchist
}

create_country_leader = {
	name = "Almazbek Atambaev"
	picture = "Almazbek_Atambaev.dds"
	ideology = social_democrat_ideology
}

#Tulip Revolution
2005.1.1 = {
	set_party_name = {
		ideology = reactionary
		long_name = KYR_reactionary_party_Ata_Zhurt_long
		name = KYR_reactionary_party_Ata_Zhurt
	}
	create_country_leader = {
		name = "Omurbek Babanov"
		picture = "Omurbek_Babanov.dds"
		ideology = oligarchist
	}
}

2016.1.1 = {
	set_politics = {
		parties = {
			reactionary = {
				popularity = 14.3
			}
			conservative = {
				popularity = 14.8
			}
			social_democrat = {
				popularity = 63.2
			}
			democratic_socialist = {
				popularity = 0
			}
		}
		
		ruling_party = social_democrat
		last_election = "2015.6.1"
		election_frequency = 48
		elections_allowed = yes
	}
}