
strategic_region={
	id=143
	name="STRATEGICREGION_143"
	provinces={
		517 828 881 900 952 1004 1027 1034 1036 1052 1069 1084 1104 1124 1134 1137 1139 1154 1169 1180 1184 1188 1200 1203 1438 1458 1519 1531 1575 1590 1603 1612 1976 2006 3427 3830 3900 3955 4009 4010 4032 4037 4058 4066 4071 4074 4089 4093 4114 4130 4137 4140 4144 4157 4167 4174 4181 4186 4190 4205 4208 4256 4469 4519 4538 4547 4606 4619 4631 4634 5007 5030 5092 6828 6904 6932 6937 6969 7000 7019 7055 7074 7089 7092 7105 7109 7129 7160 7167 7189 7200 7208 7301 7314 7406 7418 7459 7508 7540 7568 7571 7580 7596 7609 7625 7656 7659 8049 8072 9768 9776 9843 9905 9934 9956 9958 9959 9969 9971 9987 10000 10003 10018 10022 10043 10053 10068 10072 10098 10102 10119 10257 10331 10364 10367 10397 10421 10434 10446 10462 10474 10480 10507 10733 10757 10880 11761 11801 11822 11931 11933 11944 11962 11980 11996 12012 12015 12026 12043 12045 12062 12069 12074 12078 12086 12093 12156 12300 12344 12356 12408 12414 12426 12432 12467 12713 3095 3098 3106 3135 3138 3143 3149 3156 3160 
	}
	weather={
		period={
			between={ 0.0 30.0 }
			temperature={ 2.0 8.0 }
			temperature_day_night={ 6.0 -6.0 }
			no_phenomenon=0.500
			rain_light=0.460
			rain_heavy=0.040
			snow=0.100
			blizzard=0.000
			mud=1.000
			sandstorm=0.000
			min_snow_level=0.000
		}
		period={
			between={ 0.1 27.1 }
			temperature={ 5.0 11.0 }
			temperature_day_night={ 6.0 -6.0 }
			no_phenomenon=0.450
			rain_light=0.440
			rain_heavy=0.050
			snow=0.060
			blizzard=0.000
			mud=1.000
			sandstorm=0.000
			min_snow_level=0.000
		}
		period={
			between={ 0.2 30.2 }
			temperature={ 9.0 16.0 }
			temperature_day_night={ 6.0 -6.0 }
			no_phenomenon=0.500
			rain_light=0.360
			rain_heavy=0.120
			snow=0.020
			blizzard=0.000
			mud=1.000
			sandstorm=0.000
			min_snow_level=0.000
		}
		period={
			between={ 0.3 29.3 }
			temperature={ 16.0 20.0 }
			temperature_day_night={ 6.0 -6.0 }
			no_phenomenon=0.500
			rain_light=0.360
			rain_heavy=0.120
			snow=0.000
			blizzard=0.000
			mud=1.000
			sandstorm=0.000
			min_snow_level=0.000
		}
		period={
			between={ 0.4 30.4 }
			temperature={ 22.0 25.0 }
			temperature_day_night={ 6.0 -6.0 }
			no_phenomenon=0.550
			rain_light=0.360
			rain_heavy=0.120
			snow=0.000
			blizzard=0.000
			mud=1.000
			sandstorm=0.000
			min_snow_level=0.000
		}
		period={
			between={ 0.5 29.5 }
			temperature={ 25.0 29.0 }
			temperature_day_night={ 9.0 -9.0 }
			no_phenomenon=0.600
			rain_light=0.360
			rain_heavy=0.120
			snow=0.000
			blizzard=0.000
			mud=1.000
			sandstorm=0.000
			min_snow_level=0.000
		}
		period={
			between={ 0.6 30.6 }
			temperature={ 29.0 32.0 }
			temperature_day_night={ 9.0 -9.0 }
			no_phenomenon=0.650
			rain_light=0.230
			rain_heavy=0.120
			snow=0.000
			blizzard=0.000
			mud=1.000
			sandstorm=0.000
			min_snow_level=0.000
		}
		period={
			between={ 0.7 30.7 }
			temperature={ 25.0 33.0 }
			temperature_day_night={ 8.0 -8.0 }
			no_phenomenon=0.600
			rain_light=0.280
			rain_heavy=0.120
			snow=0.000
			blizzard=0.000
			mud=1.000
			sandstorm=0.000
			min_snow_level=0.000
		}
		period={
			between={ 0.8 29.8 }
			temperature={ 21.0 29.0 }
			temperature_day_night={ 8.0 -8.0 }
			no_phenomenon=0.600
			rain_light=0.300
			rain_heavy=0.100
			snow=0.000
			blizzard=0.000
			mud=1.000
			sandstorm=0.000
			min_snow_level=0.000
		}
		period={
			between={ 0.9 30.9 }
			temperature={ 15.0 24.0 }
			temperature_day_night={ 8.0 -8.0 }
			no_phenomenon=0.650
			rain_light=0.300
			rain_heavy=0.050
			snow=0.000
			blizzard=0.000
			mud=1.000
			sandstorm=0.000
			min_snow_level=0.000
		}
		period={
			between={ 0.10 29.10 }
			temperature={ 10.0 18.0 }
			temperature_day_night={ 8.0 -8.0 }
			no_phenomenon=0.650
			rain_light=0.300
			rain_heavy=0.050
			snow=0.000
			blizzard=0.000
			mud=1.000
			sandstorm=0.000
			min_snow_level=0.000
		}
		period={
			between={ 0.11 30.11 }
			temperature={ 3.0 11.0 }
			temperature_day_night={ 8.0 -8.0 }
			no_phenomenon=0.600
			rain_light=0.460
			rain_heavy=0.040
			snow=0.100
			blizzard=0.000
			mud=1.000
			sandstorm=0.000
			min_snow_level=0.000
		}
	}
}
