
strategic_region={
	id=15
	name="STRATEGICREGION_15"
	provinces={
		666 670 683 685 700 712 714 728 731 748 3668 3672 3682 4463 6689 6701 6702 6730 6733 6748 6750 6753 7624 9628 9645 9647 9649 9674 9691 9722 9726 9742 11614 11632 11633 11664 11678 11690 11693 11694 11696 11727 
	}
	weather={
		period={
			between={ 0.0 30.0 }
			temperature={ -5.0 0.0 }
			temperature_day_night={ -5.0 5.0 }
			no_phenomenon=0.700
			rain_light=0.000
			rain_heavy=0.000
			snow=0.100
			blizzard=0.000
			mud=1.000
			sandstorm=0.000
			min_snow_level=0.000
		}
		period={
			between={ 0.1 27.1 }
			temperature={ -5.0 1.0 }
			temperature_day_night={ -5.0 5.0 }
			no_phenomenon=0.700
			rain_light=0.000
			rain_heavy=0.000
			snow=0.050
			blizzard=0.000
			mud=1.000
			sandstorm=0.000
			min_snow_level=0.000
		}
		period={
			between={ 0.2 30.2 }
			temperature={ 5.0 15.0 }
			temperature_day_night={ -5.0 5.0 }
			no_phenomenon=0.700
			rain_light=0.250
			rain_heavy=0.100
			snow=0.000
			blizzard=0.000
			mud=1.000
			sandstorm=0.000
			min_snow_level=0.000
		}
		period={
			between={ 0.3 29.3 }
			temperature={ 6.0 15.0 }
			temperature_day_night={ -5.0 5.0 }
			no_phenomenon=0.700
			rain_light=0.250
			rain_heavy=0.100
			snow=0.000
			blizzard=0.000
			mud=1.000
			sandstorm=0.000
			min_snow_level=0.000
		}
		period={
			between={ 0.4 30.4 }
			temperature={ 10.0 20.0 }
			temperature_day_night={ -5.0 5.0 }
			no_phenomenon=0.600
			rain_light=0.250
			rain_heavy=0.100
			snow=0.000
			blizzard=0.000
			mud=1.000
			sandstorm=0.000
			min_snow_level=0.000
		}
		period={
			between={ 0.5 29.5 }
			temperature={ 25.0 35.0 }
			temperature_day_night={ -5.0 5.0 }
			no_phenomenon=0.500
			rain_light=0.300
			rain_heavy=0.200
			snow=0.000
			blizzard=0.000
			mud=1.000
			sandstorm=0.500
			min_snow_level=0.000
		}
		period={
			between={ 0.6 30.6 }
			temperature={ 25.0 35.0 }
			temperature_day_night={ -5.0 5.0 }
			no_phenomenon=0.500
			rain_light=0.300
			rain_heavy=0.100
			snow=0.000
			blizzard=0.000
			mud=1.000
			sandstorm=0.500
			min_snow_level=0.000
		}
		period={
			between={ 0.7 30.7 }
			temperature={ 25.0 35.0 }
			temperature_day_night={ -5.0 5.0 }
			no_phenomenon=0.500
			rain_light=0.200
			rain_heavy=0.050
			snow=0.000
			blizzard=0.000
			mud=1.000
			sandstorm=0.500
			min_snow_level=0.000
		}
		period={
			between={ 0.8 29.8 }
			temperature={ 12.0 22.0 }
			temperature_day_night={ -5.0 5.0 }
			no_phenomenon=0.500
			rain_light=0.200
			rain_heavy=0.050
			snow=0.000
			blizzard=0.000
			mud=1.000
			sandstorm=0.000
			min_snow_level=0.000
		}
		period={
			between={ 0.9 30.9 }
			temperature={ 12.0 22.0 }
			temperature_day_night={ -5.0 5.0 }
			no_phenomenon=0.500
			rain_light=0.100
			rain_heavy=0.050
			snow=0.000
			blizzard=0.000
			mud=1.000
			sandstorm=0.000
			min_snow_level=0.000
		}
		period={
			between={ 0.10 29.10 }
			temperature={ 10.0 15.0 }
			temperature_day_night={ -5.0 5.0 }
			no_phenomenon=0.600
			rain_light=0.100
			rain_heavy=0.050
			snow=0.000
			blizzard=0.000
			mud=1.000
			sandstorm=0.000
			min_snow_level=0.000
		}
		period={
			between={ 0.11 30.11 }
			temperature={ 5.0 10.0 }
			temperature_day_night={ -5.0 5.0 }
			no_phenomenon=0.700
			rain_light=0.100
			rain_heavy=0.050
			snow=0.100
			blizzard=0.000
			mud=1.000
			sandstorm=0.000
			min_snow_level=0.000
		}
	}
}
