
strategic_region={
	id=161
	name="STRATEGICREGION_161"
	provinces={
		1107 1147 1179 1971 1978 1980 3456 4003 4110 4382 4558 4979 4990 4998 5043 5075 5105 7049 7084 7847 7903 7917 7975 8007 8013 8022 8044 8066 8098 8106 9084 10066 10108 10139 10173 10735 10813 10843 10887 10898 12005 12717 12761 12763 12774 12792 3866 3886 3909 3918 3953 4024 4080 4136 4324 6057 6097 6107 6197 6379 6450 6492 6515 6746 6818 6856 13264 13265 13266 13267
	}
	weather={
		period={
			between={ 0.0 30.0 }
			temperature={ 4.0 6.0 }
			temperature_day_night={ 10.0 -10.0 }
			no_phenomenon=0.800
			rain_light=0.100
			rain_heavy=0.500
			snow=0.050
			blizzard=0.000
			mud=1.000
			sandstorm=0.000
			min_snow_level=0.000
		}
		period={
			between={ 0.1 27.1 }
			temperature={ 5.0 9.0 }
			temperature_day_night={ 12.0 -12.0 }
			no_phenomenon=0.800
			rain_light=0.100
			rain_heavy=0.500
			snow=0.050
			blizzard=0.000
			mud=1.000
			sandstorm=0.000
			min_snow_level=0.000
		}
		period={
			between={ 0.2 30.2 }
			temperature={ 7.0 10.0 }
			temperature_day_night={ 12.0 -12.0 }
			no_phenomenon=0.850
			rain_light=0.100
			rain_heavy=0.500
			snow=0.000
			blizzard=0.000
			mud=1.000
			sandstorm=0.000
			min_snow_level=0.000
		}
		period={
			between={ 0.3 29.3 }
			temperature={ 15.0 18.0 }
			temperature_day_night={ 12.0 -12.0 }
			no_phenomenon=0.850
			rain_light=0.100
			rain_heavy=0.500
			snow=0.000
			blizzard=0.000
			mud=1.000
			sandstorm=0.000
			min_snow_level=0.000
		}
		period={
			between={ 0.4 30.4 }
			temperature={ 21.0 24.0 }
			temperature_day_night={ 12.0 -12.0 }
			no_phenomenon=0.900
			rain_light=0.100
			rain_heavy=0.500
			snow=0.000
			blizzard=0.000
			mud=1.000
			sandstorm=0.000
			min_snow_level=0.000
		}
		period={
			between={ 0.5 29.5 }
			temperature={ 25.0 28.0 }
			temperature_day_night={ 15.0 -15.0 }
			no_phenomenon=1.000
			rain_light=0.000
			rain_heavy=0.000
			snow=0.000
			blizzard=0.000
			mud=1.000
			sandstorm=0.000
			min_snow_level=0.000
		}
		period={
			between={ 0.6 30.6 }
			temperature={ 27.0 30.0 }
			temperature_day_night={ 15.0 -15.0 }
			no_phenomenon=1.000
			rain_light=0.000
			rain_heavy=0.000
			snow=0.000
			blizzard=0.000
			mud=1.000
			sandstorm=0.000
			min_snow_level=0.000
		}
		period={
			between={ 0.7 30.7 }
			temperature={ 23.0 27.0 }
			temperature_day_night={ 15.0 -15.0 }
			no_phenomenon=0.950
			rain_light=0.000
			rain_heavy=0.050
			snow=0.000
			blizzard=0.000
			mud=1.000
			sandstorm=0.000
			min_snow_level=0.000
		}
		period={
			between={ 0.8 29.8 }
			temperature={ 20.0 23.0 }
			temperature_day_night={ 17.0 -17.0 }
			no_phenomenon=0.920
			rain_light=0.030
			rain_heavy=0.050
			snow=0.000
			blizzard=0.000
			mud=1.000
			sandstorm=0.000
			min_snow_level=0.000
		}
		period={
			between={ 0.9 30.9 }
			temperature={ 18.0 21.0 }
			temperature_day_night={ 17.0 -17.0 }
			no_phenomenon=0.920
			rain_light=0.030
			rain_heavy=0.050
			snow=0.000
			blizzard=0.000
			mud=1.000
			sandstorm=0.000
			min_snow_level=0.000
		}
		period={
			between={ 0.10 29.10 }
			temperature={ 14.0 16.0 }
			temperature_day_night={ 16.0 -16.0 }
			no_phenomenon=0.880
			rain_light=0.070
			rain_heavy=0.050
			snow=0.000
			blizzard=0.000
			mud=1.000
			sandstorm=0.000
			min_snow_level=0.000
		}
		period={
			between={ 0.11 30.11 }
			temperature={ 5.0 7.0 }
			temperature_day_night={ 16.0 -16.0 }
			no_phenomenon=0.800
			rain_light=0.050
			rain_heavy=0.100
			snow=0.050
			blizzard=0.000
			mud=1.000
			sandstorm=0.000
			min_snow_level=0.000
		}
	}
}
