
strategic_region={
	id=26
	name="STRATEGICREGION_26"
	provinces={
		565 637 646 657 662 687 690 693 696 711 713 723 727 744 746 793 818 893 935 949 965 3076 3577 3630 3636 3639 3645 3649 3663 3665 3676 3694 3696 3707 3724 3741 3796 3819 3937 3971 6584 6600 6652 6658 6677 6679 6682 6695 6706 6711 6714 6731 6743 6747 6814 6842 6857 6923 6967 6982 9606 9610 9612 9617 9619 9635 9640 9651 9668 9670 9685 9701 9716 9771 9783 9818 9862 9902 9919 11588 11592 11603 11605 11636 11639 11652 11655 11657 11672 11676 11686 11689 11705 11754 11813 13202 13203 13204 487 499 501 522 523 
	}
	weather={
		period={
			between={ 0.0 30.0 }
			temperature={ -4.0 4.0 }
			temperature_day_night={ 9.0 -9.0 }
			no_phenomenon=0.600
			rain_light=0.150
			rain_heavy=0.050
			snow=0.160
			blizzard=0.040
			mud=1.000
			sandstorm=0.000
			min_snow_level=0.000
		}
		period={
			between={ 0.1 27.1 }
			temperature={ -2.0 8.0 }
			temperature_day_night={ 9.0 -9.0 }
			no_phenomenon=0.600
			rain_light=0.150
			rain_heavy=0.050
			snow=0.160
			blizzard=0.040
			mud=1.000
			sandstorm=0.000
			min_snow_level=0.000
		}
		period={
			between={ 0.2 30.2 }
			temperature={ 2.0 13.0 }
			temperature_day_night={ 8.0 -8.0 }
			no_phenomenon=0.600
			rain_light=0.200
			rain_heavy=0.100
			snow=0.100
			blizzard=0.000
			mud=1.000
			sandstorm=0.000
			min_snow_level=0.000
		}
		period={
			between={ 0.3 29.3 }
			temperature={ 6.0 18.0 }
			temperature_day_night={ 13.0 -13.0 }
			no_phenomenon=0.550
			rain_light=0.300
			rain_heavy=0.100
			snow=0.050
			blizzard=0.000
			mud=1.000
			sandstorm=0.000
			min_snow_level=0.000
		}
		period={
			between={ 0.4 30.4 }
			temperature={ 12.0 23.0 }
			temperature_day_night={ 13.0 -13.0 }
			no_phenomenon=0.500
			rain_light=0.350
			rain_heavy=0.150
			snow=0.000
			blizzard=0.000
			mud=1.000
			sandstorm=0.000
			min_snow_level=0.000
		}
		period={
			between={ 0.5 29.5 }
			temperature={ 14.0 28.0 }
			temperature_day_night={ 15.0 -15.0 }
			no_phenomenon=0.650
			rain_light=0.250
			rain_heavy=0.100
			snow=0.000
			blizzard=0.000
			mud=1.000
			sandstorm=0.000
			min_snow_level=0.000
		}
		period={
			between={ 0.6 30.6 }
			temperature={ 17.0 32.0 }
			temperature_day_night={ 15.0 -15.0 }
			no_phenomenon=0.700
			rain_light=0.200
			rain_heavy=0.100
			snow=0.000
			blizzard=0.000
			mud=1.000
			sandstorm=0.000
			min_snow_level=0.000
		}
		period={
			between={ 0.7 30.7 }
			temperature={ 18.0 32.0 }
			temperature_day_night={ 15.0 -15.0 }
			no_phenomenon=0.750
			rain_light=0.200
			rain_heavy=0.050
			snow=0.000
			blizzard=0.000
			mud=1.000
			sandstorm=0.000
			min_snow_level=0.000
		}
		period={
			between={ 0.8 29.8 }
			temperature={ 12.0 27.0 }
			temperature_day_night={ 13.0 -13.0 }
			no_phenomenon=0.700
			rain_light=0.200
			rain_heavy=0.100
			snow=0.000
			blizzard=0.000
			mud=1.000
			sandstorm=0.000
			min_snow_level=0.000
		}
		period={
			between={ 0.9 30.9 }
			temperature={ 8.0 20.0 }
			temperature_day_night={ 10.0 -10.0 }
			no_phenomenon=0.650
			rain_light=0.250
			rain_heavy=0.100
			snow=0.000
			blizzard=0.000
			mud=1.000
			sandstorm=0.000
			min_snow_level=0.000
		}
		period={
			between={ 0.10 29.10 }
			temperature={ 3.0 11.0 }
			temperature_day_night={ 8.0 -8.0 }
			no_phenomenon=0.600
			rain_light=0.150
			rain_heavy=0.500
			snow=0.170
			blizzard=0.030
			mud=1.000
			sandstorm=0.000
			min_snow_level=0.000
		}
		period={
			between={ 0.11 30.11 }
			temperature={ -2.0 5.0 }
			temperature_day_night={ 7.0 -7.0 }
			no_phenomenon=0.550
			rain_light=0.150
			rain_heavy=0.500
			snow=0.220
			blizzard=0.030
			mud=1.000
			sandstorm=0.000
			min_snow_level=0.000
		}
	}
}
