ideas = {
	country = {

		Resolute_Support_Mission = {
			
			allowed = {
				original_tag = USA
			}

			allowed_civil_war = {
				always = yes
			}

			removal_cost = -1
			
			modifier = {
				experience_gain_army = 0.01
			}
		}
		
		Opium_Economy = {
			
			allowed_civil_war = {
				always = yes
			}

			removal_cost = -1
			
			modifier = {
				political_power_factor = -0.15		
				corruption_cost_factor = 0.25
				consumer_goods_factor = 0.05
			}
		}
	}
}