ideas = {

	# Religions
	country = {
		
		sunni = {
			
			allowed = {
				always = no
			}

			allowed_civil_war = {
				has_government = fascism
			}

			removal_cost = -1

			picture = sunni_idea

			
			modifier = {
				fascism_acceptance = 10
				#fascism_drift = 0.01
			}
		}

		shia = {
			
			allowed = {
				always = no
			}

			allowed_civil_war = {
				always = yes
			}

			removal_cost = -1

			picture = shia_idea
			
			modifier = {
				democratic_acceptance = -10
				fascism_acceptance = -10
				fascism_drift = -0.05
			}
		}
		
		sufi_islam = {
			
			allowed = {
				always = no
			}

			allowed_civil_war = {
				always = yes
			}

			removal_cost = -1

			picture = sufi_islam
			
			modifier = {
				democratic_acceptance = -5
				fascism_acceptance = -10
				fascism_drift = -0.02
			}
		}
		
		
		ibadi = {
			
			allowed = {
				always = no
			}

			allowed_civil_war = {
				always = yes
			}

			removal_cost = -1

			picture = ibadi_idea
			
			modifier = {
				communism_acceptance = 5
				democratic_acceptance = 5
				fascism_acceptance = 5
				fascism_drift = -0.02
				neutrality_drift = 0.02
			}
		}
		
		christian = {
			
			allowed = {
				always = no
			}

			allowed_civil_war = {
				has_government = democratic
			}

			removal_cost = -1

			picture = christian_idea
			
			modifier = {
				fascism_acceptance = -10
				fascism_drift = -0.05
			}
		}
		orthodox_christian = {
			
			allowed = {
				always = no
			}

			allowed_civil_war = {
				has_government = communism
			}

			removal_cost = -1

			picture = orthodox_christian_idea
			
			modifier = {
				fascism_acceptance = -10
				fascism_drift = -0.05
				communism_drift = 0.02 ###Would lead to greece, Ukraine, Romania enivatbly going emerging? Logical? Discuss###
			}
		}
		pluralist = {
			
			allowed = {
				always = no
			}

			allowed_civil_war = {
				has_government = democratic
			}

			removal_cost = -1

			picture = pluralist_religion_idea
			
			modifier = {
				stability_factor = 0.02
				fascism_acceptance = -10
				fascism_drift = -0.05
			}
		}
		buddism = {
			
			allowed = {
				always = no
			}

			allowed_civil_war = {
				always = yes
			}

			removal_cost = -1

			picture = buddism_idea
			
			modifier = {
				fascism_acceptance = -10
				fascism_drift = -0.05
			}
		}
		hindu = {
			
			allowed = {
				always = no
			}

			allowed_civil_war = {
				always = yes
			}

			removal_cost = -1

			picture = hindu_idea
			
			modifier = {
				fascism_acceptance = -10
				fascism_drift = -0.05
			}
		}
		judaism = {
			
			allowed = {
				always = no
			}

			allowed_civil_war = {
				always = yes
			}

			removal_cost = -1

			picture = judaism_idea
			
			modifier = {
				fascism_acceptance = -10
				democratic_acceptance = 10
				fascism_drift = -0.05
			}
		}
		shinto = {
			
			allowed = {
				always = no
			}

			allowed_civil_war = {
				always = yes
			}

			removal_cost = -1

			picture = shinto_idea
			
			modifier = {
				fascism_acceptance = -10
				democratic_acceptance = 10
				fascism_drift = -0.05
			}
		}
		cheondo = {
			
			allowed = {
				always = no
			}

			allowed_civil_war = {
				always = yes
			}

			removal_cost = -1

			picture = cheondo_idea
			
			modifier = {
				fascism_acceptance = -10
				democratic_acceptance = -10
				fascism_drift = -0.05
			}
		}
	}
}