ideas = {

	Vehicle_Company = {
	
		designer = yes
		
		SIN_st_engineering_vehicle_company = {
		
			picture = ST_Engineering_SIN
			
			allowed = {
				tag = SIN
			}
			cost = 150
			
			removal_cost = 10
			
			research_bonus = {
				Cat_ARMOR = 0.186
			}
			
			traits = {
				Cat_ARMOR_6
			
			}
			ai_will_do = {
				factor = 0.6 #All countries need a land army, vehicles are part of modern warfare
				
				modifier = {
					num_of_military_factories > 10 #has the industry to take advantage of the company
					factor = 1
				}
				modifier = {
					is_major = yes #Majors project power
					factor = 1
				}
			}
			
		}
	}
	
	Infantry_Weapon_Company = {
	
		designer = yes
		
		SIN_st_engineering_infantry_weapon_company = {
		
			picture = ST_Engineering_SIN
			
			allowed = {
				tag = SIN
			}
			cost = 150
			
			removal_cost = 10
			
			research_bonus = {
				Cat_INF_WEP = 0.186
			}
			
			traits = {
				Cat_INF_WEP_6
			
			}
			ai_will_do = {
				factor = 0.6 #All countries need a land army, vehicles are part of modern warfare
				
				modifier = {
					num_of_military_factories > 5 #has the industry to take advantage of the company
					factor = 1
				}
				modifier = {
					is_major = yes #Majors project power
					factor = 1
				}
			}
			
		}
	}
	
	Ship_Company = {
	
		designer = yes
		
		SIN_st_engineering_ship_company = {
		
			picture = ST_Engineering_SIN
			
			allowed = {
				tag = SIN
			}
			cost = 150
			
			removal_cost = 10
			
			research_bonus = {
				Cat_CARRIER = 0.186
			}
			
			traits = {
				Cat_CARRIER_6
			
			}
			ai_will_do = {
				factor = 0.6
				
				modifier = {
					has_navy_size = { size > 25 } #has a large navy
					factor = 1
				}
				modifier = {
					num_of_naval_factories > 3 #has the industry to take advantage of the company
					factor = 1
				}
				modifier = {
					is_major = yes #Majors project power
					factor = 1
				}
				modifier = {
					NOT = { #need to have ports
						any_owned_state = {
							is_coastal = yes
						}
					}
					factor = -10
				}
			}
			
		}
	}
	
}
