state = {
	id = 271
	name = "STATE_271"
	manpower = 1064000
	state_category = state_02

	history = {
		owner = SWA
		victory_points = { 7900 5 } #Mbabane
		
		buildings = {
			infrastructure = 2
			industrial_complex = 1
			air_base = 1

		}
		add_core_of = SWA
		2017.1.1 = {
			add_manpower = 283098
		}
	}

	provinces = {
		 7900
		
		}
}
