state = {
	id = 202
	name = "STATE_202"
	manpower = 1510574
	state_category = state_03

	history = {
		owner = LEB
		victory_points = { 792 10 } #Beirut
		
		buildings = {
			infrastructure = 5
			industrial_complex = 2
			arms_factory = 1
			air_base = 3
			
			792 = {
				naval_base = 4
			}

		}
		add_core_of = LEB
		add_core_of = HEZ
		2017.1.1 = {
			add_manpower = 920885
		}
	}

	provinces = {
		  792
		
		}
}
