state = {
	id = 617
	name = "STATE_617"
	manpower = 5378332
	state_category = state_06
	
	resources = {
		oil = 4
		aluminium = 1
	}

	history = {
		owner = JAP
		victory_points = { 10444 5 } #Sapporo
		victory_points = { 3962 2 } #Hakodate
		victory_points = { 12352 3 } #Asahikawa
		victory_points = { 1512 1 } #Kushiro
		victory_points = { 12493 1 } #Obhiro
		
		
		
		buildings = {
			infrastructure = 6
			industrial_complex = 4
			air_base = 6
			
			10444 = {
				naval_base = 2
			}

		}
		add_core_of = JAP
		2017.1.1 = {
			add_manpower = -34753
		}
	}

	provinces = {
		3962 7532 10444 12352 4576 1642 4646 1512 12493 10512 12421 7595
		
		}
}
