
state = {
	id = 26
	name = "STATE_26" # Falklands
	manpower = 2637
	
	state_category = state_00
	
	history = {
		owner = ENG
		buildings = {
			infrastructure = 5
			air_base = 1
			12960 = {
				naval_base = 1
			}
		}
		add_claim_by = ARG
		2017.1.1 = {
			add_manpower = 318
		}
	}
	provinces = { 12960 }
}
