
state = {
	id = 172
	name = "STATE_172"
	resources = {
		oil = 22.000
	}

	history = {
		owner = KUW
		victory_points = {
			8085 5 
		}
		buildings = {
			infrastructure = 7
			industrial_complex = 2
			arms_factory = 3
			air_base = 10
			8085 = {
				naval_base = 1

			}

		}
		add_core_of = KUW
		2017.1.1 = {
			add_manpower = 2000000
			add_manpower = 241961
		}
	}

	provinces = {
		8085 11212 
	}
	manpower = 1941697
	buildings_max_level_factor = 1.000
	state_category = state_03
}
