
state = {
	id = 22
	name = "STATE_22" # South Georgia Islands
	manpower = 88
	
	state_category = state_00
	history = {
		owner = ENG
		buildings = {
			infrastructure = 4
			10995 = {
				naval_base = 1
			}
		}
		2017.1.1 = {
			add_manpower = 11
		}
	}
	
	provinces = {
		10995 
	}
}
