
state = {
	id = 848
	name = "STATE_848"

	history = {
		owner = NIC
		victory_points = {
			1988 1 
		}
		victory_points = {
			2075 1 
		}
		buildings = {
			infrastructure = 1
			arms_factory = 1
		  industrial_complex = 1
			1988 = {
				naval_base = 1

			}

		}
		add_core_of = NIC
		2017.1.1 = {
			add_manpower = 263480
		}
	}

	provinces = {
		1988 2075 9745 9863 
	}
	manpower = 1099420
	buildings_max_level_factor = 1.000
	state_category = state_02
}
