
state = {
	id = 945
	name = "STATE_945"

	history = {
		owner = POL
		buildings = {
			infrastructure = 5
			arms_factory = 1
			industrial_complex = 1
		}
		add_core_of = POL
		2017.1.1 = {
			add_manpower = 1938
		}
	}

	provinces = {
		493 584 3482 9508 9546 11428 11532 660 
	}
	manpower = 2483385
	buildings_max_level_factor = 1.000
	state_category = state_03
}
