
state = {
	id = 331
	name = "STATE_331"

	history = {
		owner = NGR
		victory_points = {
			1975 10 
		}
		victory_points = {
			2056 1 
		}
		buildings = {
			infrastructure = 1
			arms_factory = 1
			air_base = 2

		}
		add_core_of = NGR
		2017.1.1 = {
			add_manpower = 2000000	
			add_manpower = 2000000	
			add_manpower = 471516	
		}
	}

	provinces = {
		1975 2056 12707 11287 11301 
	}
	manpower = 4547642
	buildings_max_level_factor = 1.000
	state_category = state_05
}
