state = {
	id = 95
	name = "STATE_95"
	manpower = 1848147
	
	state_category = state_03
	history = {
		owner = SPR
		victory_points = { 13071 5 } #Las Palmas
		buildings = {
			infrastructure = 6
			industrial_complex = 1
			13071 = {
				naval_base = 1
			}
		}
		add_core_of = SPR
		2017.1.1 = {
			add_manpower = 257372
		}
	}

	provinces = {
		13071 
	}
}

