state = {
	id = 520
	name = "STATE_520"
	manpower = 5512695
	state_category = state_06
	
	resources = {
		aluminium = 21
		tungsten = 3
	}

	history = {
		owner = VIE
		victory_points = { 1605 3 } #Buon Ma Thuot
		victory_points = { 4363 1 } #Pleiku
		victory_points = { 7271 1 } #Da Lat
		victory_points = { 12176 1 } #Bao Loc
		
		buildings = {
			infrastructure = 1
			industrial_complex = 1
		}
		add_core_of = VIE
		2017.1.1 = {
			add_manpower = 1343556
		}
	}

	provinces = {
		7238 12176 7271 1605 12109 1400 7380 1328 4363 1248 12150 7347
	}
}
