
state = {
	id = 314
	name = "STATE_314"

	history = {
		owner = MLC
		victory_points = {
			6473 1 
		}
		victory_points = {
			6481 1 
		}
		victory_points = {
			10883 1 
		}
		buildings = {
			infrastructure = 0

		}
		add_core_of = DRC
		add_core_of = RCD
		add_core_of = MLC
		2017.1.1 = {
			owner = DRC
			remove_core_of = RCD
			remove_core_of = MLC
			add_manpower = 1662602
		}
	}

	provinces = {
		7931 10883 12741 12824 6473 6481 6527 
	}
	manpower = 2333567
	buildings_max_level_factor = 1.000
	state_category = state_03
}
