
state = {
	id = 887
	name = "STATE_887"
	
	resources = {
		oil = 1
		steel = 5
		tungsten = 2
	}

	history = {
		owner = BRA
		victory_points = {
			10946 10 
		}
		victory_points = {
			12422 3 
		}
		victory_points = {
			8129 1 
		}
		victory_points = {
			10419 3 
		}
		victory_points = {
			11002 1 
		}
		victory_points = {
			8242 1 
		}
		victory_points = {
			4617 1 
		}
		victory_points = {
			10392 1 
		}
		victory_points = {
			8184 1 
		}
		victory_points = {
			8177 1 
		}
		victory_points = {
			5194 1 
		}
		victory_points = {
			5218 1 
		}
		buildings = {
			infrastructure = 2
			arms_factory = 2
		  industrial_complex = 3
			air_base = 2
			10946 = {
				naval_base = 5

			}

		}
		add_core_of = BRA
		2017.1.1 = {
			add_manpower = 2000000
			add_manpower = 978858
		}
	}

	provinces = {
		4617 5174 5194 5218 8129 8177 8184 8197 8242 10392 10419 10926 10946 11002 12422 969 3476 3536 3598 3758 3771 3773 3845 3892 
	}
	manpower = 13344794
	buildings_max_level_factor = 1.000
	state_category = state_10
}
