
state = {
	id = 7
	name = "STATE_7"
	resources = {
		aluminium = 7.000
	}

	history = {
		owner = ICE
		victory_points = {
			13255 5 
		}
		victory_points = {
			4861 1 
		}
		victory_points = {
			13254 1 
		}
		buildings = {
			infrastructure = 6
			industrial_complex = 1
			air_base = 2
			12674 = {
				naval_base = 1

			}

		}
		add_core_of = ICE
		2017.1.1 = {
			add_manpower = 85606
		}
	}

	provinces = {
		4861 12674 12689 13254 13255 
	}
	manpower = 281205
	buildings_max_level_factor = 1.000
	state_category = state_01
}
