
state = {
	id = 17
	name = "STATE_17" #
	manpower = 1700294
	state_category = state_03
	
	history = {
		owner = ENG
		victory_points = { 3379 5 } #Belfast
		victory_points = { 385 1 } #Derry
		victory_points = { 3242 1 } #Craigavon
		buildings = {
			infrastructure = 6
			industrial_complex = 2
			3379 = {
				naval_base = 4
			}
		}
		add_core_of = ENG
		add_core_of = IRE
		2017.1.1 = {
			add_manpower = 204705
		}
	}

	provinces = {
		276 385 3217 3242 3329 3379 11257 
	}

}
