
state = {
	id = 354
	name = "STATE_354"

	history = {
		owner = CDI
		victory_points = {
			8065 1 
		}
		victory_points = {
			5070 1 
		}
		buildings = {
			infrastructure = 1
			industrial_complex = 1
		}
		add_core_of = CDI
		2017.1.1 = {
			add_manpower = 2000000
			add_manpower = 886763
		}
	}

	provinces = {
		5070 8065 9362 9372 9406 9466 9474 
	}
	manpower = 5408195
	buildings_max_level_factor = 1.000
	state_category = state_06
}
