
state = {
	id = 475
	name = "STATE_475"

	history = {
		owner = RAJ
		victory_points = {
			10810 1 
		}
		victory_points = {
			12730 1 
		}
		buildings = {
			infrastructure = 2

		}
		add_core_of = RAJ
		add_core_of = CHI
		2017.1.1 = {
			add_manpower = 367488
		}
	}

	provinces = {
		1116 1996 10810 12730 7 26 36 44 
	}
	manpower = 1265790
	buildings_max_level_factor = 1.000
	state_category = state_02
}
