
state = {
	id = 645
	name = "STATE_645"

	history = {
		owner = SOV
		victory_points = {
			11202 5 
		}
		victory_points = {
			117 5 
		}
		victory_points = {
			6324 1 
		}
		victory_points = {
			387 3 
		}
		victory_points = {
			11109 1 
		}
		victory_points = {
			9111 1 
		}
		victory_points = {
			6095 1 
		}
		buildings = {
			infrastructure = 4
			industrial_complex = 1

		}
		add_core_of = SOV
		2017.1.1 = {
			add_manpower = -24764
		}
	}

	provinces = {
		8 39 71 95 110 117 194 207 248 320 387 415 3089 3110 3333 6086 6154 6242 6293 6324 9111 9120 9177 9212 11109 11202 11234 11259 11304 11392 
	}
	manpower = 1293940
	buildings_max_level_factor = 1.000
	state_category = state_02
}
