state = {
	id = 620
	name = "STATE_620"
	manpower = 1
	state_category = state_00

	history = {
		owner = JAP
		victory_points = { 13026 1 } #
		
		
		
		buildings = {
			infrastructure = 6
			
			13026 = {
				naval_base = 1
			}

		}
		add_core_of = JAP
	}

	provinces = {
		13026
		
		}
}
