
state = {
	id = 227
	name = "STATE_227"

	history = {
		owner = SSU
		victory_points = {
			11608 5 
		}
		victory_points = {
			1953 1 
		}
		victory_points = {
			7996 1 
		}
		buildings = {
			infrastructure = 1
			industrial_complex = 1
			arms_factory = 1
			air_base = 1

		}
		SUD = {
			set_province_controller = 11608
		}
		add_core_of = SSU
		add_claim_by = SUD
		2017.1.1 = {
			add_core_of = AGF
			remove_claim_by = SUD
			AGF = {
				set_province_controller = 9356
				set_province_controller = 9378
				set_province_controller = 9380
				set_province_controller = 9408
				set_province_controller = 9373
			}
			add_manpower = 1762103
			SSU = {
				set_province_controller = 11608
			}
		}
	}

	provinces = {
		1953 2096 6340 7996 9356 9373 9378 9380 9390 9408 9501 10764 10859 11026 11608 11619 11622 11715 11767 11812 11883 
	}
	manpower = 3691561
	buildings_max_level_factor = 1.000
	state_category = state_04
}
