
state = {
	id = 372
	name = "STATE_372"

	history = {
		owner = SHA
		victory_points = {
			7979 1 
		}
		buildings = {
			infrastructure = 0
			air_base = 1
			arms_factory = 1

		}
		add_core_of = MOR
		add_core_of = SHA
		2017.1.1 = {
			add_manpower = 22125
		}
	}

	provinces = {
		7979 13232 13233 13234 13235 
	}
	manpower = 84817
	buildings_max_level_factor = 1.000
	state_category = state_00
}
