
state = {
	id = 496
	name = "STATE_496"

	history = {
		owner = BRM
		victory_points = {
			4425 5 
		}
		victory_points = {
			12363 1 
		}
		victory_points = {
			10920 1 
		}
		victory_points = {
			8063 1 
		}
		victory_points = {
			1082 1 
		}
		victory_points = {
			1197 1 
		}
		buildings = {
			infrastructure = 0
			arms_factory = 1
			air_base = 1

		}
		2017.1.1 = {
			add_manpower = 622486
		}
	}

	provinces = {
		1082 1197 1934 4318 4425 4588 4996 8063 10920 12363 143 146 150 
	}
	manpower = 2662888
	buildings_max_level_factor = 1.000
	state_category = state_04
}
