
state = {
	id = 654
	name = "STATE_654"

	history = {
		owner = SOV
		victory_points = {
			306 5 
		}
		victory_points = {
			382 5 
		}
		victory_points = {
			3377 3 
		}
		victory_points = {
			11254 3 
		}
		victory_points = {
			236 3 
		}
		victory_points = {
			9301 1 
		}
		victory_points = {
			335 1 
		}
		buildings = {
			infrastructure = 3
			industrial_complex = 1
			air_base = 2

		}
		add_core_of = SOV
		2017.1.1 = {
			add_manpower = -38346
		}
	}

	provinces = {
		223 236 246 306 335 382 3236 3263 3279 3297 3313 3362 3377 6243 9261 9272 9301 9318 9351 9382 9399 11254 11300 11336 11353 
	}
	manpower = 2003623
	buildings_max_level_factor = 1.000
	state_category = state_03
}
