state = {
	id = 8
	name = "STATE_8"
	
	state_category = state_00
	
	manpower = 20743
	
	resources = {
		oil = 6.000
	}

	history =
	{
		owner = ENG
		victory_points = { 6196 1 } #Lerwick
		
		buildings = {
			infrastructure = 6
			
			6196 = {
				naval_base = 1	
			}
		}
		add_core_of = SCO
		add_core_of = ENG
		2017.1.1 = {
			add_manpower = 2497
		}
	}

	provinces =
	{
	   6196 
	}
}
