
state = {
	id = 335
	name = "STATE_335"

	history = {
		owner = UKR
		victory_points = {
			577 5 
		}
		buildings = {
			infrastructure = 3
		}
		add_core_of = UKR
		2017.1.1 = {
			add_manpower = -13632
		}

	}

	provinces = {
		577 3407 9548
	}
	manpower = 922817
	buildings_max_level_factor = 1.000
	state_category = state_02
}
