
state = {
	id = 353
	name = "STATE_353"

	history = {
		owner = CDI
		victory_points = {
			9398 10 
		}
		buildings = {
			infrastructure = 1
			arms_factory = 1
			air_base = 1

		}
		add_core_of = CDI
		2017.1.1 = {
			add_manpower = 1554655
		}
	}

	provinces = {
		5013 8122 9386 9398 9405 9423 
	}
	manpower = 2912562
	buildings_max_level_factor = 1.000
	state_category = state_04
}
