
state = {
	id = 149
	name = "STATE_149"
	
	resources = {
		steel = 3
	}

	history = {
		owner = PMR
		victory_points = {
			13202 5 
		}
		buildings = {
			infrastructure = 3
			arms_factory = 1
			industrial_complex = 1
			air_base = 2

		}
		add_core_of = MLV
		add_core_of = PMR
		2017.1.1 = {
			add_manpower = -70000
		}

	}

	provinces = {
		13202 13203 13204 
	}
	manpower = 543685
	buildings_max_level_factor = 1.000
	state_category = state_01
}
