
state = {
	id = 312
	name = "STATE_312"

	history = {
		owner = MLC
		victory_points = {
			6027 1 
		}
		victory_points = {
			12808 1 
		}
		buildings = {
			infrastructure = 0

		}
		add_core_of = DRC
		add_core_of = RCD
		add_core_of = MLC
		2017.1.1 = {
			owner = DRC
			remove_core_of = RCD
			remove_core_of = MLC
			add_manpower = 1572988
		}
	}

	provinces = {
		2034 2073 6027 6468 6506 6534 11934 12808 
	}
	manpower = 1624607
	buildings_max_level_factor = 1.000
	state_category = state_03
}
