
state = {
	id = 342
	name = "STATE_342"

	history = {
		owner = TOG
		victory_points = {
			1951 10 
		}
		buildings = {
			infrastructure = 1
			industrial_complex = 1
			air_base = 1
			1951 = {
				naval_base = 1

			}

		}
		add_core_of = TOG
		2017.1.1 = {
			add_manpower = 1998176
		}
	}

	provinces = {
		1951 9687 
	}
	manpower = 3067712
	buildings_max_level_factor = 1.000
	state_category = state_04
}
