
state = {
	id = 292
	name = "STATE_292"
	

	history = {
		owner = ZAM
		victory_points = {
			5199 10 
		}
		victory_points = {
			7872 1 
		}
		buildings = {
			infrastructure = 2
			industrial_complex = 1
			arms_factory = 1
			air_base = 4

		}
		add_core_of = ZAM
		2017.1.1 = {
			add_manpower = 2000000
			add_manpower = 356159
		}	
	}

	provinces = {
		5199 7872 9545 9564 9581 
	}
	manpower = 3174744
	buildings_max_level_factor = 1.000
	state_category = state_04
}
