
state = {
	id = 18
	name = "STATE_18"
	manpower = 50
	
	state_category = state_00
	
	history =
	{
		owner = ENG
		buildings = {
			infrastructure = 1
			1280 = {
				naval_base = 1
			}
		}
		add_core_of = ENG
		2017.1.1 = {
			add_manpower = 6
		}
	}
	provinces = {
		1280
	}
}
