
state = {
	id = 282
	name = "STATE_282"

	history = {
		owner = NAM
		buildings = {
			infrastructure = 2

		}
		add_core_of = NAM
		2017.1.1 = {
			add_manpower = 128031
		}
	}

	provinces = {
		2207 2229 7770 11540 11644 
	}
	manpower = 337857
	buildings_max_level_factor = 1.000
	state_category = state_01
}
