
state = {
	id = 861
	name = "STATE_861"
	resources = {
		oil = 3.000
	}

	history = {
		owner = DOM
		victory_points = {
			9507 10 
		}
		victory_points = {
			7632 1 
		}
		buildings = {
			infrastructure = 4
			arms_factory = 1
		  industrial_complex = 3
			air_base = 4
			9507 = {
				naval_base = 4

			}

		}
		add_core_of = DOM
		2017.1.1 = {
			add_manpower = 1572614
		}
	}

	provinces = {
		7632 7660 9495 9507 
	}
	manpower = 5905547
	buildings_max_level_factor = 1.000
	state_category = state_06
}
