
state = {
	id = 553
	name = "STATE_553"

	history = {
		owner = LEB
		victory_points = {
			6206 1 
		}
		buildings = {
			infrastructure = 4
			arms_factory = 2

		}
		add_core_of = HEZ
		add_core_of = LEB
		2017.1.1 = {
			owner = HEZ
			add_manpower = 398853
		}
	}

	provinces = {
		6206 
	}
	manpower = 654257
	buildings_max_level_factor = 1.000
	state_category = state_01
}
