
state = {
	id = 178
	name = "STATE_178"

	history = {
		owner = SAU
		victory_points = {
			10786 5 
		}
		victory_points = {
			5006 1 
		}
		victory_points = {
			8073 1 
		}
		buildings = {
			infrastructure = 3
			industrial_complex = 1
			arms_factory = 1
			air_base = 6

		}
		add_core_of = SAU
		2017.1.1 = {
			add_manpower = 1807173
		}
	}	

	provinces = {
		5006 8030 8073 10786 3339 3350 
	}
	manpower = 2734626
	buildings_max_level_factor = 1.000
	state_category = state_04
}
