state = {
	id = 827
	name = "STATE_827"
	manpower = 1
	state_category = state_00

	history = {
		owner = USA
		victory_points = { 7115 1 } #
		
		
		
		buildings = {
			infrastructure = 6
			air_base = 10
			
			7115 = {
				naval_base = 10
			}

		}
		add_core_of = USA
	}

	provinces = {
		7115
		
		}
}
