
state = {
	id = 951
	name = "STATE_951"

	history = {
		owner = EGY
		add_core_of = EGY
		2017.1.1 = {
			add_manpower = 665
		}
	}
	
	impassable = yes

	provinces = {
		12733 
	}
	manpower = 1531
	buildings_max_level_factor = 1.000
	state_category = state_00
}
