
state = {
	id = 30
	name = "STATE_30"
	resources = {
		oil = 25.000
		aluminium = 5.000
	}

	history = {
		owner = NOR
		victory_points = {
			122 5 
		}
		victory_points = {
			6145 1 
		}
		victory_points = {
			65 1 
		}
		victory_points = {
			53 5 
		}
		victory_points = {
			6176 1 
		}
		victory_points = {
			3192 3 
		}
		victory_points = {
			3090 1 
		}
		victory_points = {
			199 1 
		}
		victory_points = {
			3188 1 
		}
		victory_points = {
			9127 3 
		}
		victory_points = {
			11100 1 
		}
		victory_points = {
			9216 1 
		}
		buildings = {
			infrastructure = 6
			industrial_complex = 1
			arms_factory = 1
			dockyard = 2
			air_base = 1
			53 = {
				naval_base = 2

			}
			3090 = {
				naval_base = 1

			}
			9127 = {
				naval_base = 1

			}
			122 = {
				naval_base = 6

			}

		}
		add_core_of = NOR
		2017.1.1 = {
			add_manpower = 230239
		}
	}

	provinces = {
		53 65 102 122 137 188 199 3049 3090 3114 3188 3192 6145 6176 6204 9047 9127 9216 11100 11101 11367 
	}
	manpower = 1176341
	buildings_max_level_factor = 1.000
	state_category = state_02
}
