
state = {
	id = 911
	name = "STATE_911"


	history = {
		owner = COL
		
		buildings = {
			infrastructure = 4
			industrial_complex = 3
			arms_factory = 1
			air_base = 6

		}
		add_core_of = COL
		2017.1.1 = {
			add_manpower = 2000000
			add_manpower = 105690
		}
	}

	provinces = {
		10747 10983 10997 
	}
	manpower = 8595710
	buildings_max_level_factor = 1.000
	state_category = state_08
}
