
state = {
	id = 426
	name = "STATE_426"
	
	resources = {
		oil = 12
	}

	history = {
		owner = PAK
		victory_points = {
			4110 5 
		}
		victory_points = {
			1971 5 
		}
		victory_points = {
			10735 1 
		}
		victory_points = {
			7084 1 
		}
		victory_points = {
			3866 15 
		}
		buildings = {
			infrastructure = 2
			industrial_complex = 5
			dockyard = 2
			air_base = 6
			
			3866 = {
				naval_base = 10

			}

		}
		add_core_of = PAK
		2017.1.1 = {
			add_manpower = 2000000
			add_manpower = 2000000
			add_manpower = 2000000
			add_manpower = 2000000
			add_manpower = 2000000
			add_manpower = 2000000
			add_manpower = 952269
			add_core_of = TTP
		}

	}

	provinces = {
		1147 1971 1980 4003 4110 4382 7049 7084 10108 10735 3886 3909 3456 3866 
	}
	manpower = 33102276
	buildings_max_level_factor = 1.000
	state_category = state_14
}
