state = {
	id = 710
	name = "STATE_710"
	manpower = 130851 
	state_category = state_03
	
	resources = {
		steel = 2
	}

	history = {
		owner = NKR

		victory_points = { 4660 1 } #Kapan
		victory_points = { 1467 3 } #Stepanakert
		
		buildings = {
			infrastructure = 2
			arms_factory = 1
			industrial_complex = 1
		}
		add_core_of = ARM
		add_core_of = NKR
		add_claim_by = AZE
		2017.1.1 = {
			add_manpower = 23099 
		}
	}

	provinces = {
		  1610 9715 1467
	}
}
