PAK;Ruling Cabinet - Start;Name;Pool;Ideology;Personality;Loyalty;Picturename;x
62501;Head of State;Pervez Musharraf;2003;NA;Resigned Generalissimo;High;M_PAK_pervez_musharraf;x
62502;Head of Government;Zafarullah Khan Jamali;2003;SC;Political Protege;High;M_PAK_zafarullah_khan_jamali;x
62503;Foreign Minister;Khurshid Kasuri;2003;SC;Great Compromiser;High;M_PAK_khurshid_kasuri;x
62504;Minister of Armament;Hamid Nawaz Khan;2003;SC;Military Entrepreneur;High;M_PAK_hamid_nawaz_khan;x
62505;Minister of Security;Khalid Ranjha;2003;SC;Crime Fighter;High;M_PAK_khalid_ranjha;x
62506;Head of Military Intelligence;Ehsan ul Haq;2003;PA;Logistics Specialist;High;M_PAK_ehsan_ul_haq;x
62507;Chief of Staff;Muhammad Aziz Khan;2003;PA;Elastic Defence Doctrine;High;M_PAK_mohammed_aziz_khan;x
62508;Chief of Army;Pervez Musharraf;2003;PA;Decisive Battle Doctrine;High;M_PAK_pervez_musharraf;x
62509;Chief of Navy;Shahid Karimullah;2003;PA;Base Control Doctrine;High;M_PAK_shahid_karimullah;x
62510;Chief of Air Force;Kaleem Saadat;2003;SC;Army Aviation Doctrine;High;M_PAK_kaleem_saadat;x
;Replacements;;;;;;;
62511;Head of Government;Chaudhry Shujaat Hussain;2003;SC;Silent Workhorse;High;M_PAK_chaudhry_shujaat_hussain;x
62512;Head of Government;Shaukat Aziz;2004;SC;Corporate Suit;High;M_PAK_shaukat_aziz;x
62513;Head of Government;Muhammad Mian Soomro;2007;SC;Corporate Suit;High;M_PAK_muhammad_mian_soomro;x
62514;Head of Government;Yousaf Raza Gillani;2003;SD;Ambitious Union Boss;High;M_PAK_yousaf_raza_gillani;x
62515;Foreign Minister;Inam-ul-Haq;2003;SC;Undistinguished Suit;High;M_PAK_inam_ul-haq;x
62516;Foreign Minister;Shah Mehmood Qureshi;2003;SD;Great Compromiser;High;M_PAK_shah_mehmood_qureshi;x
62517;Head of State;Asif Ali Zardari;2003;SD;Autocratic Charmer;High;M_PAK_asif_ali_zardari;x
62518;Head of State;Benazir Bhutto;2003;SD;Benevolent Gentleman;High;M_PAK_benazir_bhutto;x
62519;Head of Government;Benazir Bhutto;2003;SD;Naive Optimist;High;M_PAK_benazir_bhutto;x
62520;Minister of Armament;Chaudhry Ahmed Mukhtar;2003;SD;Resource Industrialist;High;Unknown;x
62521;Minister of Security;Chaudhry Aitzaz Ahsan;2003;SD;Crime Fighter;High;M_PAK_chaudhry_aitzaz_ahsan;x
62522;Minister of Security;Rehman Malik;2003;SD;Undistinguished Suit;High;M_PAK_rehman_malik;x
62523;Head of Government;Nawaz Sharif;2003;ML;Backroom Backstabber;High;M_PAK_nawaz_sharif;x
62524;Head of State;Nawaz Sharif;2003;ML;Autocratic Charmer;High;M_PAK_nawaz_sharif;x
62525;Minister of Security;Muhammad Barjees Tahir;2003;ML;Silent Lawyer;High;M_PAK_muhammad_barjees_tahir;x
62526;Minister of Armament;Khawaja Muhammad Asif;2003;ML;Resource Industrialist;High;M_PAK_khawaja_muhammad_asif;x
62527;Minister of Security;S.M. Zafar;2003;SC;Crime Fighter;High;M_PAK_s_m_zafar;x
62528;Minister of Security;Fazl-ur Rahman;2003;FA;Prince of Terror;High;M_PAK_fazl-ur_rahman;x
62529;Head of State;Qazi Hussain Ahmad;2003;FA;Stern Imperialist;High;M_PAK_qazi_hussain_ahmad;x
62530;Head of Government;Qazi Hussain Ahmad;2003;FA;Flamboyant Tough Guy;High;M_PAK_qazi_hussain_ahmad;x
62531;Foreign Minister;Qazi Hussain Ahmad;2003;FA;Ideological Crusader;High;M_PAK_qazi_hussain_ahmad;x
62532;Minister of Security;Khurshid Ahmad;2003;FA;Silent Lawyer;High;M_PAK_khurshid_ahmad;x
62533;Minister of Armament;Liaqat Baloch;2003;FA;Corrupt Kleptocrat;High;M_PAK_liaqat_baloch;x
62534;Head of State;Liaqat Baloch;2003;FA;Ruthless Powermonger;High;M_PAK_liaqat_baloch;x
62535;Head of Government;Liaqat Baloch;2003;FA;Naive Optimist;High;M_PAK_liaqat_baloch;x
62536;Chief of Army;Ashfaq Parvez Kayani;2007;PA;Armoured Spearhead Doctrine;High;M_PAK_ashfaq_parvez_kayani;x
62537;Head of Military Intelligence;Ashfaq Parvez Kayani;2003;PA;Political Specialist;High;M_PAK_ashfaq_parvez_kayani;x
62538;Chief of Staff;Ashfaq Parvez Kayani;2007;PA;School of Psychology;High;M_PAK_ashfaq_parvez_kayani;x
62539;Chief of Staff;Ehsan ul Haq;2003;PA;School of Fire Support;High;M_PAK_ehsan_ul_haq;x
62540;Chief of Army;Ehsan ul Haq;2003;PA;Elastic Defence Doctrine;High;M_PAK_ehsan_ul_haq;x
62541;Chief of Staff;Tariq Majid;2005;SC;School of Fire Support;High;M_PAK_tariq_majid;x
62542;Chief of Army;Tariq Majid;2005;SC;Armoured Spearhead Doctrine;High;M_PAK_tariq_majid;x
62543;Chief of Navy;Muhammad Afzal Tahir;2003;SC;Power Projection Doctrine;High;M_PAK_muhammad_afzal_tahir;x
62544;Chief of Staff;Muhammad Afzal Tahir;2005;SC;School of Psychology;High;M_PAK_muhammad_afzal_tahir;x
62545;Chief of Air Force;Tanvir Mahmood Ahmed;2003;SC;Air Superiority Doctrine;High;M_PAK_tanvir_mahmood_ahmed;x
62546;Chief of Army;Mohammad Yousaf;2003;PA;Armoured Spearhead Doctrine;High;M_PAK_mohammad_yousaf;x
62547;Chief of Staff;Mohammad Yousaf;2003;PA;School of Manoeuvre;High;M_PAK_mohammad_yousaf;x
62548;Chief of Army;Ahsan Saleem Hyat;2003;PA;Armoured Spearhead Doctrine;High;M_PAK_ahsan_saleem_hyat;x
62549;Chief of Staff;Ahsan Saleem Hyat;2003;PA;School of Manoeuvre;High;M_PAK_ahsan_saleem_hyat;x
62550;Chief of Army;Masood Aslam;2005;SC;Decisive Battle Doctrine;High;M_PAK_masood_aslam;x
62551;Chief of Staff;Masood Aslam;2007;SC;School of Psychology;High;M_PAK_masood_aslam;x
62552;Head of Military Intelligence;Nadeem Taj;2006;PA;Dismal Enigma;High;M_PAK_nadeem_taj;x
62553;Chief of Army;Nadeem Taj;2006;PA;Guns and Butter Doctrine;High;M_PAK_nadeem_taj;x
62554;Chief of Staff;Pervez Musharraf;2003;PA;School of Fire Support;High;M_PAK_pervez_musharraf;x
62555;Head of Military Intelligence;Tanvir Mahmood Ahmed;2003;FA;Political Specialist;High;M_PAK_tanvir_mahmood_ahmed;x
62556;Chief of Air Force;Rao Qamar Suleman;2006;SC;Army Aviation Doctrine;High;M_PAK_rao_qamar_suleman;x
62557;Chief of Navy;Noman Bashir;2007;SC;Power Projection Doctrine;High;M_PAK_noman_bashir;x
62558;Chief of Army;Muhammad Yusaf Khan;2003;PA;Armoured Spearhead Doctrine;High;M_PAK_muhammad_yusaf_khan;x
62559;Head of Military Intelligence;Athar Abbas;2005;SC;Logistics Specialist;High;M_PAK_athar_abbas;x
62560;Chief of Army;Waheed Arshad;2008;SC;Armoured Spearhead Doctrine;High;M_PAK_waheed_arshad;x
62561;Minister of Armament;Hamid Javed;2003;PA;Tank Proponent;High;Unknown;x
62562;Minister of Security;Hamid Nawaz Khan;2003;PA;Man of the People;High;Unknown;x
62563;Minister of Armament;Tariq Waseem Ghazi;2003;SC;Infantry Proponent;High;M_PAK_tariq_waseem_ghazi;x
62564;Minister of Armament;Kamran Rasool;2003;SC;Resource Industrialist;High;M_PAK_kamran_rasool;x
62565;Minister of Armament;Syed Athar Ali;2005;SC;Military Entrepreneur;High;Unknown;x
62566;Head of Military Intelligence;Ahmad Shuja Pasha;2005;SC;Logistics Specialist;High;M_PAK_ahmad_shuja_pasha;x
62567;Chief of Staff;Mohammad Mustafa Khan;2005;SC;School of Defence;High;M_PAK_mohammad_mustafa_khan;x
