﻿division_template = {
	name = "Liwa Alquwwat Alkhasa"
	
	regiments = {
		Special_Forces = { x = 0 y = 0 }
		Special_Forces = { x = 0 y = 1 }
	}
	
	support = {
	}
	
	priority = 2
}

division_template = {
	name = "Liwa Alquwwat Aljawiya"
	
	regiments = {
		Mot_Inf_Bat = { x = 0 y = 0 }
		Mot_Inf_Bat = { x = 0 y = 1 }
		Mot_Inf_Bat = { x = 0 y = 2 }
	}
	
	support = {
	}
	
}

division_template = {
	name = "Liwa Mushat Mechaniqui"
	
	regiments = {
		Arm_Inf_Bat = { x = 0 y = 0 }
		Mech_Inf_Bat = { x = 0 y = 1 }
		Mech_Inf_Bat = { x = 0 y = 2 }
	}
	
	support = {
		SP_Arty_Battery = { x = 0 y = 0 }
	}
	
}

division_template = {
	name = "Liwa Milishia"
	
	regiments = {
		Mot_Militia_Bat = { x = 0 y = 0 }
		Mot_Militia_Bat = { x = 0 y = 1 }
	}
	
	support = {
	}
	
	priority = 0
	
}

division_template = {
	name = "Rijal Qabayil"
	
	regiments = {
		Militia_Bat = { x = 0 y = 0 }
		Militia_Bat = { x = 0 y = 1 }
	}
	
	support = {
	}
	
	priority = 0
	
}

division_template = {
	name = "Liwa Moudar'a"
	
	regiments = {
		armor_Bat = { x = 0 y = 0 }
		armor_Bat = { x = 0 y = 1 }
		armor_Bat = { x = 0 y = 2 }
	}
	
	support = {
	}
	
	
}

units = {
	
	#Al-Saiqa Special Forces brigades
	division = {	
		name = "Liwa 21 Al-Zawiya Alshuhada"
		location = 11954 		#
		division_template = "Liwa Alquwwat Alkhasa"
		start_experience_factor = 0.5
		start_equipment_factor = 0.01
	}
	
	division = {	
		name = "Tabarriyat Al-Saiqa 'Aistifsarat'"
		location = 1130 		#
		division_template = "Liwa Alquwwat Alkhasa"
		start_experience_factor = 0.5
		start_equipment_factor = 0.01
	}
	
	#17th Thunderbolt Brigade
	division = {	
		name = "17. Liwa Saiqa Alquwwat Alkhasa"
		location = 10117 		#
		division_template = "Liwa Alquwwat Alkhasa"
		start_experience_factor = 0.5
		start_equipment_factor = 0.01
	}
	
	#"Airforce brigades"
	division = {	
		name = "1. Liwa Alquwwat Aljawiya"
		location = 13073 		#
		division_template = "Liwa Alquwwat Aljawiya"
		start_experience_factor = 0.3
		start_equipment_factor = 0.01
	}
	
	division = {	
		name = "2. Liwa Alquwwat Aljawiya"
		location = 1062 		#
		division_template = "Liwa Alquwwat Aljawiya"
		start_experience_factor = 0.3
		start_equipment_factor = 0.01
	}
	
	division = {	
		name = "3. Liwa Alquwwat Aljawiya"
		location = 1057 		#
		division_template = "Liwa Alquwwat Aljawiya"
		start_experience_factor = 0.3
		start_equipment_factor = 0.01
	}
	
	#27th Brigade
	division = {	
		name = "27. Liwa"
		location = 1127 		#
		division_template = "Liwa Mushat Mechaniqui"
		start_experience_factor = 0.3
		start_equipment_factor = 0.01
	}
	
	#Anti-Terrorism Force
	division = {	
		name = "Quat Mukafahat Al-Iirhab"
		location = 9119 		#
		division_template = "Liwa Milishia"
		start_experience_factor = 0.3
		start_equipment_factor = 0.01
	}
	
	#Awliaa Al-Damm
	division = {	
		name = "Awliaa Al-Damm"
		location = 10117 		#
		division_template = "Liwa Milishia"
		start_experience_factor = 0.3
		start_equipment_factor = 0.01
	}
	
	#Shahab Al-Manteq 'Al-Sahawat'
	division = {	
		name = "Shahab Al-Manteq 'Al-Sahawat'"
		location = 13073 		#
		division_template = "Liwa Milishia"
		start_experience_factor = 0.3
		start_equipment_factor = 0.01
	}
	
	#Al-Qa'qa'a brigade
	division = {	
		name = "Liwa Al-Qa'qa'a"
		location = 12866 		#
		division_template = "Liwa Milishia"
		start_experience_factor = 0.3
		start_equipment_factor = 0.01
	}
	
	#Al-Naser brigade
	division = {	
		name = "Liwa Al-Naser"
		location = 9123 		#
		division_template = "Liwa Milishia"
		start_experience_factor = 0.3
		start_equipment_factor = 0.01
	}
	
	#Al-Sawaiq brigade
	division = {	
		name = "Liwa Al-Sawaiq"
		location = 9119 		#
		division_template = "Liwa Milishia"
		start_experience_factor = 0.3
		start_equipment_factor = 0.01
	}
	
	#Jaysh al-Qaba'el
	division = {	
		name = "Jaysh al-Qaba'el"
		location = 7082 		#
		division_template = "Liwa Milishia"
		start_experience_factor = 0.3
		start_equipment_factor = 0.01
	}
	
	#Al-Madani Brigade
	division = {	
		name = "Liwa Al-Madani"
		location = 4120 		#
		division_template = "Liwa Milishia"
		start_experience_factor = 0.3
		start_equipment_factor = 0.01
	}
	
	#Tebu tribesmen
	division = {	
		name = "1. Liwa Tebu"
		location = 12022 		#
		division_template = "Rijal Qabayil"
		start_experience_factor = 0.3
		start_equipment_factor = 0.01
	}
	division = {	
		name = "2. Liwa Tebu"
		location = 12022 		#
		division_template = "Rijal Qabayil"
		start_experience_factor = 0.3
		start_equipment_factor = 0.01
	}
	division = {	
		name = "3. Liwa Tebu"
		location = 9118 		#
		division_template = "Rijal Qabayil"
		start_experience_factor = 0.3
		start_equipment_factor = 0.01
	}
	
	#204 Tank Brigade
	division = {	
		name = "204. Liwa Moudar'a"
		location = 4120 		#
		division_template = "Liwa Moudar'a"
		start_experience_factor = 0.3
		start_equipment_factor = 0.01
	}
	
	navy = {
		name = "Al-bahriat Al-Liybya"
		base = 1130
		location = 1130
		ship = { name = "Al Hani" definition = corvette equipment = { corvette_2 = { amount = 1 owner = HOR } } }
	}
	

}

instant_effect = {
	
	add_equipment_to_stockpile = {
		type = infantry_weapons			#AKM
		amount = 4000
		producer = SOV 
	}
	
	add_equipment_to_stockpile = {
		type = infantry_weapons4			#Zastava M21
		amount = 350
		producer = SER
	}
	
	add_equipment_to_stockpile = {
		type = infantry_weapons3			#FN F2000
		amount = 350
		producer = BEL
	}
	
	add_equipment_to_stockpile = {
		type = infantry_weapons			#FN FAL
		amount = 1300
		producer = BEL
	}
	
	add_equipment_to_stockpile = {
		type = infantry_weapons			#G3
		amount = 1300
		producer = GER
	}
	
	add_equipment_to_stockpile = {
		type = Anti_tank_0			
		amount = 200
		producer = SOV
	}
	
	add_equipment_to_stockpile = {
		type = Heavy_Anti_tank_0			
		amount = 100
		producer = SOV
	}
	
	add_equipment_to_stockpile = {
		type = Anti_Air_0			
		amount = 200
		producer = SOV
	}
	
	add_equipment_to_stockpile = {
		type = command_control_equipment			
		amount = 400
		producer = SOV
	}
	
	add_equipment_to_stockpile = {
		type = MBT_1			#T-55
		amount = 50
		producer = SOV
	}
	
	add_equipment_to_stockpile = {
		type = MBT_1			#T-62
		#version_name = "T-62"
		amount = 50
		producer = SOV
	}
	
	add_equipment_to_stockpile = {
		type = MBT_2			#T-72
		amount = 20
		producer = SOV
	}
	
	add_equipment_to_stockpile = {
		type = APC_1			#BTR-60
		amount = 100
		producer = SOV
	}
	
	add_equipment_to_stockpile = {
		type = IFV_1			#BMP-1
		amount = 50
		producer = SOV
	}
	
	add_equipment_to_stockpile = {
		type = IFV_4			#BMP-3
		amount = 10
		producer = SOV
	}
	
	add_equipment_to_stockpile = {
		type = IFV_6			#Puma
		amount = 20
		producer = GER
	}
	
	add_equipment_to_stockpile = {
		type = util_vehicle_4			#Nimr
		amount = 169
		producer = UAE
	}
	
	add_equipment_to_stockpile = {
		type = util_vehicle_2			#Humvee
		amount = 200
		producer = USA
	}
	
	add_equipment_to_stockpile = {
		type = util_vehicle_0			
		amount = 700
		producer = SOV
	}
	
	add_equipment_to_stockpile = {
		type = SP_R_arty_0			#BM-21 Grad
		amount = 20
		producer = SOV
	}
	
	add_equipment_to_stockpile = {
		type = attack_helicopter1			#Mi-24 Hind
		amount = 20
		producer = SOV
	}
	
	add_equipment_to_stockpile = {
		type = MR_Fighter1			#MiG-21
		amount = 12
		producer = SOV
	}
	
	add_equipment_to_stockpile = {
		type = AS_Fighter1			#MiG-23
		amount = 10
		producer = SOV
	}
	
	add_equipment_to_stockpile = {
		type = MR_Fighter1			#Mirage F1
		amount = 2
		producer = FRA
	}
	
}