﻿division_template = {
	name = "Pansarregement"
	
	division_names_group = SWE_ARM_02

	regiments = {
		armor_Bat = { x = 0 y = 0 }
		Arm_Inf_Bat = { x = 1 y = 0 }
		Arm_Inf_Bat = { x = 1 y = 1 }
	}
	support = {
		Arm_Recce_Comp = { x = 0 y = 0 }
		SP_Arty_Battery = { x = 0 y = 1 }
		SP_AA_Battery = { x = 0 y = 2 }
		H_Engi_Comp = { x = 0 y = 3 }
	}
}

division_template = {
	name = "Mekaniserad Regement"
	
	division_names_group = SWE_MEC_04

	regiments = {
		Mech_Inf_Bat = { x = 0 y = 0 }
		Mech_Inf_Bat = { x = 0 y = 1 }
		Arm_Inf_Bat = { x = 0 y = 2 }
		Arty_Bat = { x = 1 y = 0 }
	}
	support = {
		Arm_Recce_Comp = { x = 0 y = 0 }
		H_Engi_Comp = { x = 0 y = 1 }
		armor_Comp = { x = 0 y = 2 }
	}
}

division_template = {
	name = "Motoriserad Regement"
	
	division_names_group = SWE_MOT_02

	regiments = {
		Mot_Inf_Bat = { x = 0 y = 0 }
		Mot_Inf_Bat = { x = 0 y = 1 }
		Mot_Recce_Bat = { x = 0 y = 2 }
		Arty_Bat = { x = 1 y = 0 }
	}
	support = {
		L_Engi_Comp = { x = 0 y = 0 }
	}
}

division_template = {
	name = "Jägarregement"
	
	division_names_group = SWE_INF_03

	regiments = {
		Special_Forces = { x = 0 y = 0 }
		Mot_Inf_Bat = { x = 1 y = 0 }
		Mot_Recce_Bat = { x = 1 y = 1 }
		Arty_Bat = { x = 2 y = 0 }
	}
	support = {
		L_Engi_Comp = { x = 0 y = 0 }
	}
}

division_template = {
	name = "Luftburna Husarregement"
	
	division_names_group = SWE_AIR_01

	regiments = {
		Mot_Air_Inf_Bat = { x = 0 y = 0 }
		Mot_Air_Inf_Bat = { x = 0 y = 1 }
		Mot_Recce_Bat = { x = 0 y = 2 }
	}
	support = {
		L_Engi_Comp = { x = 0 y = 0 }
		Arty_Battery = { x = 0 y = 1 }
	}
}

division_template = {
	name = "Amfibebataljon"
	
	division_names_group = SWE_MAR_01

	regiments = {
		L_Marine_Bat = { x = 0 y = 0 }
	}
	support = {
		L_Recce_Comp = { x = 0 y = 0 }
	}
}

units = {

####### Swedish Army #######

#4 armd, 2 inf, 1 arty regt
# Mobilization strength: 6 mech bde to be formed from 4 arm, 2 inf, 1 ary regiments
# total btn's: 16 mech, 6 jaeger, 1 airborne, 4 AA, 4 engineers
#
# norrbotten, Södermanlands, Skaraborg Regementet, Gotlands regemente
# Södra Skånska Regementet, Jämtlands fältjägarregemente
# Norrlands dragonregemente, Livregementets Husarer
	
	division = {			
		#name = "Norrlands Dragonregemente"
		division_name = {
			is_name_ordered = yes
			name_order = 1
		}
		location = 6024 #Arvidsjaur 
		division_template = "Jägarregement"
		start_experience_factor = 0.5
		start_equipment_factor = 0.01
	}
	division = {			
		#name = "Norrbottens Regemente"
		division_name = {
			is_name_ordered = yes
			name_order = 1
		}
		location = 6165
		division_template = "Pansarregement"
		start_experience_factor = 0.5
		start_equipment_factor = 0.01
	}

	division = {			
		#name = "Södermanlands Regemente"
		division_name = {
			is_name_ordered = yes
			name_order = 2
		}
		location = 11188 #Strängnäs
		division_template = "Pansarregement"
		start_experience_factor = 0.4
		start_equipment_factor = 0.01
	}
	
	division = {			
		#name = "Jämtlands fältjägarregemente"
		division_name = {
			is_name_ordered = yes
			name_order = 1
		}
		location = 46 #Østersund
		division_template = "Mekaniserad Regement"
		start_experience_factor = 0.4
		start_equipment_factor = 0.01
	}
	
	division = {			
		#name = "Södra Skånska Regementet"
		division_name = {
			is_name_ordered = yes
			name_order = 2
		}
		location = 9300 #Lund
		division_template = "Mekaniserad Regement"
		start_experience_factor = 0.5
		start_equipment_factor = 0.01
	}
	
	division = {			
		#name = "Skaraborg Regementet"
		division_name = {
			is_name_ordered = yes
			name_order = 3
		}
		location = 3375
		division_template = "Mekaniserad Regement"
		start_experience_factor = 0.4
		start_equipment_factor = 0.01
	}
	
	division = {			
		#name = "Gotlands Regemente"
		division_name = {
			is_name_ordered = yes
			name_order = 3
		}
		location = 6258
		division_template = "Pansarregement"
		start_experience_factor = 0.3
		start_equipment_factor = 0.01
	}
	
	division = {			
		#name = "Livregementets Husarer"
		division_name = {
			is_name_ordered = yes
			name_order = 1
		}
		location = 3063
		division_template = "Luftburna Husarregement"
		start_experience_factor = 0.7
		start_equipment_factor = 0.01
	}
	
	division = {			
		#name = "Livgardet"
		division_name = {
			is_name_ordered = yes
			name_order = 1
		}
		location = 6050
		division_template = "Motoriserad Regement"
		start_experience_factor = 0.5
		start_equipment_factor = 0.01
	}
	
	division = {			
		#name = "2:a Amfibebataljonen"
		division_name = {
			is_name_ordered = yes
			name_order = 2
		}
		location = 6050
		division_template = "Amfibebataljon"
		start_experience_factor = 0.7
		start_equipment_factor = 0.01
	}
	
	###### Navy ########
	
	navy = {					
		name = "Tredje sjöstridsflottiljen"				
		base = 11215
		location = 11215 
		ship = { name = "HMS Stockholm" definition = corvette experience = 70 equipment = { missile_corvette_1 = { amount = 1 owner = SWE } }  }
		ship = { name = "HMS Malmö" definition = corvette experience = 70 equipment = { missile_corvette_1 = { amount = 1 owner = SWE } }  }
	}
	
	navy = {					
		name = "Fjärde sjöstridsflottiljen"				
		base = 6050
		location = 6050
		ship = { name = "HMS Gävle" definition = corvette experience = 70 equipment = { missile_corvette_2 = { amount = 1 owner = SWE } }  }
		ship = { name = "HMS Sundsvall" definition = corvette experience = 70 equipment = { missile_corvette_2 = { amount = 1 owner = SWE } }  }
		ship = { name = "HMS Göteborg" definition = corvette experience = 70 equipment = { missile_corvette_2 = { amount = 1 owner = SWE } }  }
		ship = { name = "HMS Kalmar" definition = corvette experience = 70 equipment = { missile_corvette_2 = { amount = 1 owner = SWE } }  }
	}
	
	navy = {					
		name = "Första ubåtsflottiljen"			
		base = 11215
		location = 11215 
		
		ship = { name = "HMS Gotland" definition = diesel_attack_submarine equipment = { diesel_attack_submarine_4 = { amount = 1 owner = SWE } }  }
		ship = { name = "HMS Uppland" definition = diesel_attack_submarine equipment = { diesel_attack_submarine_4 = { amount = 1 owner = SWE } }  }
		ship = { name = "HMS Halland" definition = diesel_attack_submarine equipment = { diesel_attack_submarine_4 = { amount = 1 owner = SWE } }  }
		ship = { name = "HMS Södermanland" definition = diesel_attack_submarine equipment = { diesel_attack_submarine_3 = { amount = 1 owner = SWE } }  }
		ship = { name = "HMS Östergötland" definition = diesel_attack_submarine equipment = { diesel_attack_submarine_3 = { amount = 1 owner = SWE } }  }
		ship = { name = "HMS Västergötland" definition = diesel_attack_submarine equipment = { diesel_attack_submarine_3 = { amount = 1 owner = SWE } }  }
		ship = { name = "HMS Hälsingland" definition = diesel_attack_submarine equipment = { diesel_attack_submarine_3 = { amount = 1 owner = SWE } }  }	
	}
	
}

instant_effect = {
	
	### Aircraft

	add_equipment_to_stockpile = {
		type = MR_Fighter3 #JAS-39
		amount = 135
	}
	add_equipment_to_stockpile = {
		type = MR_Fighter2 #JA-37
		amount = 47
	}
	add_equipment_to_stockpile = {
		type = L_Strike_fighter1 #Sk-60
		amount = 103
	}
	add_equipment_to_stockpile = {
		type = transport_plane1 #C-130E
		amount = 8
		producer = USA
	}
	add_equipment_to_stockpile = {
		type = transport_plane2 #Saab340
		amount = 7
	}
	add_equipment_to_stockpile = {
		type = transport_helicopter1 #Bo 105
		amount = 20
		producer = GER
	}
	add_equipment_to_stockpile = {
		type = transport_helicopter1 #
		amount = 5
	}
	add_equipment_to_stockpile = {
		type = transport_helicopter1 #
		amount = 14
		producer = USA
	}
	add_equipment_to_stockpile = {
		type = transport_helicopter1
		amount = 11
		producer = FRA
	}
	
	### Inf Equip
	add_equipment_to_stockpile = {
		type = infantry_weapons2 #1985
		amount = 8000
	}
		
	add_equipment_to_stockpile = {
		type = Anti_tank_1 #BILL
		amount = 340
	}
	
	add_equipment_to_stockpile = {
		type = Heavy_Anti_tank_0 #TOW
		amount = 160
		producer = USA
	}
	
	add_equipment_to_stockpile = {
		type = Anti_Air_1 #RBS 70
		amount = 250
	}
	
	add_equipment_to_stockpile = {
		type = SP_Anti_Air_1 #RBS 90
		amount = 50
	}
	
	add_equipment_to_stockpile = {
		type = SP_Anti_Air_0 #Hawk
		amount = 8
		producer = USA
	}
	
	add_equipment_to_stockpile = {
		type = command_control_equipment2 
		amount = 940
	}
	
	add_equipment_to_stockpile = {
		type = ENGI_MBT_2 #Bgbv-4012
		amount = 90
	}
	
	### Vehicles
	
	add_equipment_to_stockpile = {
		type = MBT_3 #Leopard 2
		amount = 160
		producer = GER
	}
	add_equipment_to_stockpile = {
		type = MBT_4 #Leopard 2A4
		amount = 80
		producer = GER
	}
	add_equipment_to_stockpile = {
		type = APC_2 #MT-LB
		amount = 520
		producer = SOV
	}
	add_equipment_to_stockpile = {
		type = IFV_1 #BMP-1
		amount = 350
		producer = SOV
	}
	add_equipment_to_stockpile = {
		type = APC_1 #pbv-302
		amount = 501
	}
	add_equipment_to_stockpile = {
		type = IFV_4 #cv-90
		amount = 355
	}
	add_equipment_to_stockpile = {
		type = APC_3 #XA-180
		amount = 34
		producer = FIN
	}
	add_equipment_to_stockpile = {
		type = APC_4 #XA-202
		amount = 168
		producer = FIN
	}
	add_equipment_to_stockpile = {
		type = util_vehicle_2 #Bandvagn 206
		amount = 3800
	}
	
	### Artillery
	
	add_equipment_to_stockpile = {
		type = SP_arty_1 #BK-1C
		amount = 26
	}
	
	add_equipment_to_stockpile = {
		type = artillery_1 #FH-77A
		amount = 155
	}
	
	if = {
		limit = { has_dlc = "Death or Dishonor" }
		GER = {
			create_production_license = {
				target = SWE 
				equipment = {
					type = MBT_4
				}
				cost_factor = 0
			}
		}
		
		else = {
			add_equipment_production = {
				equipment = {
					type = MBT_4
					creator = "GER"
				}
				requested_factories = 1
				progress = 0.5
				efficiency = 50
			}
		}
	}
	
	add_equipment_production = {
		equipment = {
			type = missile_corvette_4 #Visby-class
			creator = "SWE"
		}
		requested_factories = 1
		progress = 0.6
		efficiency = 100
		amount = 6
	}
}